[
  {
    "id": "1",
    "date": "2016-08-04",
    "value": {
      "message": "VAT submit date",
      "type": "VAT",
      "month": "8"
    }
  },
  {
    "id": "2",
    "date": "2016-08-05",
    "value": {
      "message": "VAT submit date",
      "type": "VAT",
      "month": "8"
    }
  },
  {
    "id": "3",
    "date": "2016-08-06",
    "value": {
      "message": "VAT submit date",
      "type": "VAT",
      "month": "8"
    }
  },
  {
    "id": "4",
    "date": "2016-08-07",
    "value": {
      "message": "VAT submit date",
      "type": "VAT",
      "month": "8"
    }
  },
  {
    "id": "5",
    "date": "2016-08-08",
    "value": {
      "message": "VAT submit date",
      "type": "VAT",
      "month": "8"
    }
  },
  {
    "id": "6",
    "date": "2016-09-04",
    "value": {
      "message": "VAT submit date",
      "type": "VAT",
      "month": "9"
    }
  },
  {
    "id": "7",
    "date": "2016-09-05",
    "value": {
      "message": "VAT submit date",
      "type": "VAT",
      "month": "9"
    }
  },
  {
    "id": "8",
    "date": "2016-09-06",
    "value": {
      "message": "VAT submit date",
      "type": "VAT",
      "month": "9"
    }
  },
  {
    "id": "9",
    "date": "2016-09-07",
    "value": {
      "message": "VAT submit date",
      "type": "VAT",
      "month": "9"
    }
  },
  {
    "id": "10",
    "date": "2016-09-08",
    "value": {
      "message": "VAT submit date",
      "type": "VAT",
      "month": "9"
    }
  },
  {
    "id": "11",
    "date": "2016-10-04",
    "value": {
      "message": "VAT submit date",
      "type": "VAT",
      "month": "10"
    }
  },
  {
    "id": "12",
    "date": "2016-10-05",
    "value": {
      "message": "VAT submit date",
      "type": "VAT",
      "month": "10"
    }
  },
  {
    "id": "13",
    "date": "2016-10-06",
    "value": {
      "message": "VAT submit date",
      "type": "VAT",
      "month": "10"
    }
  },
  {
    "id": "14",
    "date": "2016-10-07",
    "value": {
      "message": "VAT submit date",
      "type": "VAT",
      "month": "10"
    }
  },
  {
    "id": "15",
    "date": "2016-10-08",
    "value": {
      "message": "VAT submit date",
      "type": "VAT",
      "month": "10"
    }
  },
  {
    "id": "16",
    "date": "2016-11-04",
    "value": {
      "message": "VAT submit date",
      "type": "VAT",
      "month": "11"
    }
  },
  {
    "id": "17",
    "date": "2016-11-05",
    "value": {
      "message": "VAT submit date",
      "type": "VAT",
      "month": "11"
    }
  },
  {
    "id": "18",
    "date": "2016-11-06",
    "value": {
      "message": "VAT submit date",
      "type": "VAT",
      "month": "11"
    }
  },
  {
    "id": "19",
    "date": "2016-11-07",
    "value": {
      "message": "VAT submit date",
      "type": "VAT",
      "month": "11"
    }
  },
  {
    "id": "20",
    "date": "2016-11-08",
    "value": {
      "message": "VAT submit date",
      "type": "VAT",
      "month": "11"
    }
  },
  {
    "id": "21",
    "date": "2016-12-04",
    "value": {
      "message": "VAT submit date",
      "type": "VAT",
      "month": "12"
    }
  },
  {
    "id": "22",
    "date": "2016-12-05",
    "value": {
      "message": "VAT submit date",
      "type": "VAT",
      "month": "12"
    }
  },
  {
    "id": "23",
    "date": "2016-12-06",
    "value": {
      "message": "VAT submit date",
      "type": "VAT",
      "month": "12"
    }
  },
  {
    "id": "24",
    "date": "2016-12-07",
    "value": {
      "message": "VAT submit date",
      "type": "VAT",
      "month": "12"
    }
  },
  {
    "id": "25",
    "date": "2016-12-08",
    "value": {
      "message": "VAT submit date",
      "type": "VAT",
      "month": "12"
    }
  },
  {
    "id": "26",
    "date": "2017-01-04",
    "value": {
      "message": "VAT submit date",
      "type": "VAT",
      "month": "1"
    }
  },
  {
    "id": "27",
    "date": "2017-01-05",
    "value": {
      "message": "VAT submit date",
      "type": "VAT",
      "month": "1"
    }
  },
  {
    "id": "28",
    "date": "2017-01-06",
    "value": {
      "message": "VAT submit date",
      "type": "VAT",
      "month": "1"
    }
  },
  {
    "id": "29",
    "date": "2016-01-07",
    "value": {
      "message": "VAT submit date",
      "type": "VAT",
      "month": "1"
    }
  },
  {
    "id": "30",
    "date": "2016-01-08",
    "value": {
      "message": "VAT submit date",
      "type": "VAT",
      "month": "1"
    }
  }
]